[{"node_id":"WM-WD-PH01-00","type":"WD","name":"Pump House 1","visibility":false,"location":"0101000020E61000000798F90E7E96534025C9737D1F723140","xcor":40,"ycor":1100}, 
 {"node_id":"WM-WD-PL00-00","type":"WD","name":"OBH Hostel","visibility":true,"location":"0101000020E61000004A97FE2529965340E5208DAFE2713140","xcor":608,"ycor":788}, 
 {"node_id":"WM-WD-PH02-00","type":"WD","name":"Pump House 2","visibility":true,"location":"0101000020E6100000DDA7F45D5B9653404E62105839723140","xcor":490,"ycor":1026}, 
 {"node_id":"WM-WD-KH01-00","type":"WD","name":"Admin Block","visibility":true,"location":"0101000020E6100000C88047AF619653405A59EC40E7713140","xcor":403,"ycor":458}, 
 {"node_id":"WM-WD-AD98-00","type":"WD","name":"Admin Block","visibility":true,"location":"0101000020E6100000C0C5D4A7669653403C7F7FEFDB713140","xcor":260,"ycor":369}, 
 {"node_id":"SR-AQ-KH02-09","type":"SR-AQ","name":"Kohli Block","visibility":false,"location":"0101000020E61000009886E12362965340601F9DBAF2713140","xcor":490,"ycor":600}, 
 {"node_id":"SR-OC-GW-KH00-01","type":"SR-OC","name":"Admin Block","visibility":true,"location":"0101000020E61000009886E12362965340601F9DBAF2713140","xcor":372,"ycor":594}, 
 {"node_id":"SR-AQ-KH03-03","type":"SR-AQ","name":"Admin Block","visibility":true,"location":"0101000020E61000009886E12362965340601F9DBAF2713140","xcor":426,"ycor":562}, 
 {"node_id":"SR-OC-GW-KH03-00","type":"SR-OC","name":"Admin Block","visibility":false,"location":"0101000020E61000009886E12362965340601F9DBAF2713140","xcor":428,"ycor":492}, 
 {"node_id":"WE-GS04-00","type":"WE","name":"Green Space","visibility":true,"location":"0101000020E610000044FAEDEB4098534064D3A5DA02753140","xcor":0,"ycor":0}, 
 {"node_id":"SR-OC-GW-KH95-01","type":"SR-OC","name":"Admin Block","visibility":true,"location":"0101000020E61000009886E12362965340601F9DBAF2713140","xcor":340,"ycor":554}, 
 {"node_id":"SR-AQ-KH03-02","type":"SR-AQ","name":"Admin Block","visibility":true,"location":"0101000020E61000009886E12362965340601F9DBAF2713140","xcor":420,"ycor":500}, 
 {"node_id":"SR-AQ-KH03-00","type":"SR-AQ","name":"Admin Block","visibility":true,"location":"0101000020E61000009886E12362965340601F9DBAF2713140","xcor":406,"ycor":507}, 
 {"node_id":"SR-OC-GW-KH03-02","type":"SR-OC","name":"Admin Block","visibility":false,"location":"0101000020E61000009886E12362965340601F9DBAF2713140","xcor":452,"ycor":671}, 
 {"node_id":"SL-VN95-00","type":"SL","name":"Admin Block","visibility":true,"location":"0101000020E610000080160104629653403FAA61BF27723140","xcor":453,"ycor":481}, 
 {"node_id":"WM-WD-VN01-01","type":"WD","name":"Vindhya","visibility":false,"location":"0101000020E61000003ABB6BBF6B965340592030C50B723140","xcor":470,"ycor":900}, 
 {"node_id":"WM-WD-VN00-00","type":"WD","name":"Vindhya","visibility":true,"location":"0101000020E6100000C052A74D6696534009658632F9713140","xcor":346,"ycor":606}, 
 {"node_id":"WM-WF-PR00-70","type":"WF","name":"Parijat Nivas","visibility":true,"location":"0101000020E6100000DE8D05854196534045B75ED383723140","xcor":1007,"ycor":229}, 
 {"node_id":"EM-CR-PR01-01","type":"EM","name":"Pump House","visibility":true,"location":"0101000020E610000079AEEFC3419653403D0D18247D723140","xcor":40,"ycor":1100}, 
 {"node_id":"EM-NC-DC00-00","type":"EM","name":"DayCare Center","visibility":true,"location":"0101000020E6100000391E7DDD339653400EF38A4C65723140","xcor":600,"ycor":700}, 
 {"node_id":"CM-VN91-01","type":"CM","name":"Vindhya","visibility":true,"location":"0101000020E610000058FFE7305F965340C3D32B6519723140","xcor":470,"ycor":900}, 
 {"node_id":"WM-WF-PH03-00","type":"WF","name":"Pump House 3","visibility":true,"location":"0101000020E61000008C84B69C4B9653407959130B7C713140","xcor":480,"ycor":213}, 
 {"node_id":"WM-WF-PH03-01","type":"WF","name":"Pump House 3","visibility":true,"location":"0101000020E61000008C84B69C4B9653407959130B7C713140","xcor":480,"ycor":213}, 
 {"node_id":"WM-WF-PH03-02","type":"WF","name":"Pump House 3","visibility":true,"location":"0101000020E61000008C84B69C4B9653407959130B7C713140","xcor":480,"ycor":213}, 
 {"node_id":"SL-NI03-00","type":"SL","name":"Nilgiri Rooftop-00","visibility":true,"location":"0101000020E61000003646A11B5096534004C8D0B183723140","xcor":0,"ycor":0}, 
 {"node_id":"SR-AC-KH01-10","type":"SR-AC","name":"Kohli Block","visibility":true,"location":"0101000020E61000009886E12362965340601F9DBAF2713140","xcor":490,"ycor":600}, 
 {"node_id":"WM-WF-PH02-70","type":"WF","name":"Pump House 2","visibility":true,"location":"0101000020E6100000E202D0285D965340B648DA8D3E723140","xcor":902,"ycor":371}, 
 {"node_id":"WM-WF-PH03-70","type":"WF","name":"Pump House 3","visibility":true,"location":"0101000020E6100000E202D0285D965340C0E8F2E670713140","xcor":40,"ycor":1100}, 
 {"node_id":"WM-WF-KB04-70","type":"WF","name":"Kohli Block","visibility":true,"location":"0101000020E6100000E066F16261965340F4177AC4E8713140","xcor":40,"ycor":1100}, 
 {"node_id":"WM-WF-KB04-71","type":"WF","name":"Kohli Block","visibility":true,"location":"0101000020E6100000D4D2DC0A619653405F9A22C0E9713140","xcor":40,"ycor":1100}, 
 {"node_id":"WM-WF-KB04-72","type":"WF","name":"Kohli Block","visibility":true,"location":"0101000020E61000008CF2CCCB619653403337DF88EE713140","xcor":40,"ycor":1100}, 
 {"node_id":"WM-WF-KB04-73","type":"WF","name":"Kohli Block","visibility":true,"location":"0101000020E6100000632B685A629653405D328E91EC713140","xcor":40,"ycor":1100}, 
 {"node_id":"WM-WF-PL00-70","type":"WF","name":"Palash Nivas","visibility":true,"location":"0101000020E6100000D4F36E2C289653409D9CA1B8E3713140","xcor":520,"ycor":211}, 
 {"node_id":"WM-WF-PL00-71","type":"WF","name":"Palash Nivas","visibility":true,"location":"0101000020E6100000D4F36E2C289653409D9CA1B8E3713140","xcor":520,"ycor":211}, 
 {"node_id":"WM-WF-PH03-03","type":"WF","name":"Pump House 3","visibility":true,"location":"0101000020E61000008C84B69C4B9653407959130B7C713140","xcor":480,"ycor":213}, 
 {"node_id":"WM-WF-VN01-00","type":"WF","name":"Vindhya Nivas c4","visibility":true,"location":"0101000020E610000043AA285E65965340F8A6E9B303723140","xcor":370,"ycor":650}, 
 {"node_id":"WM-WF-PH01-00","type":"WF","name":"Pump House 1","visibility":true,"location":"0101000020E61000000798F90E7E96534025C9737D1F723140","xcor":40,"ycor":1100}, 
 {"node_id":"WE-VN04-00","type":"WE","name":"Vindhya","visibility":true,"location":"0101000020E61000007311DF89599653403CBD529621723140","xcor":470,"ycor":900}, 
 {"node_id":"WE-BN04-00","type":"WE","name":"Bakul Nivas","visibility":true,"location":"0101000020E6100000C20D428A4B965340E415889E94713140","xcor":600,"ycor":1600}, 
 {"node_id":"SR-AC-KH00-01","type":"SR-AC","name":"Kohli Block","visibility":true,"location":"0101000020E61000009886E12362965340601F9DBAF2713140","xcor":490,"ycor":600}, 
 {"node_id":"SR-AC-KH00-02","type":"SR-AC","name":"Kohli Block","visibility":true,"location":"0101000020E61000009886E12362965340601F9DBAF2713140","xcor":490,"ycor":600}, 
 {"node_id":"SR-AC-KH00-03","type":"SR-AC","name":"Kohli Block","visibility":true,"location":"0101000020E61000009886E12362965340601F9DBAF2713140","xcor":490,"ycor":600}, 
 {"node_id":"SR-AC-KH00-04","type":"SR-AC","name":"Kohli Block","visibility":true,"location":"0101000020E61000009886E12362965340601F9DBAF2713140","xcor":490,"ycor":600}, 
 {"node_id":"SR-AC-KH00-05","type":"SR-AC","name":"Kohli Block","visibility":true,"location":"0101000020E61000009886E12362965340601F9DBAF2713140","xcor":490,"ycor":600}, 
 {"node_id":"SR-AC-KH00-06","type":"SR-AC","name":"Kohli Block","visibility":true,"location":"0101000020E61000009886E12362965340601F9DBAF2713140","xcor":490,"ycor":600}, 
 {"node_id":"SR-AC-KH00-07","type":"SR-AC","name":"Kohli Block","visibility":true,"location":"0101000020E61000009886E12362965340601F9DBAF2713140","xcor":490,"ycor":600}, 
 {"node_id":"SR-AC-KH00-08","type":"SR-AC","name":"Kohli Block","visibility":true,"location":"0101000020E61000009886E12362965340601F9DBAF2713140","xcor":490,"ycor":600}, 
 {"node_id":"SR-AC-KH01-00","type":"SR-AC","name":"Kohli Block","visibility":true,"location":"0101000020E61000009886E12362965340601F9DBAF2713140","xcor":490,"ycor":600}, 
 {"node_id":"SR-AC-KH01-01","type":"SR-AC","name":"Kohli Block","visibility":true,"location":"0101000020E61000009886E12362965340601F9DBAF2713140","xcor":490,"ycor":600}, 
 {"node_id":"SR-AC-KH01-02","type":"SR-AC","name":"Kohli Block","visibility":true,"location":"0101000020E61000009886E12362965340601F9DBAF2713140","xcor":490,"ycor":600}, 
 {"node_id":"SR-AC-KH01-04","type":"SR-AC","name":"Kohli Block","visibility":true,"location":"0101000020E61000009886E12362965340601F9DBAF2713140","xcor":490,"ycor":600}, 
 {"node_id":"SR-AC-KH01-05","type":"SR-AC","name":"Kohli Block","visibility":true,"location":"0101000020E61000009886E12362965340601F9DBAF2713140","xcor":490,"ycor":600}, 
 {"node_id":"SR-AC-KH01-06","type":"SR-AC","name":"Kohli Block","visibility":true,"location":"0101000020E61000009886E12362965340601F9DBAF2713140","xcor":490,"ycor":600}, 
 {"node_id":"SR-AC-KH01-07","type":"SR-AC","name":"Kohli Block","visibility":true,"location":"0101000020E61000009886E12362965340601F9DBAF2713140","xcor":490,"ycor":600}, 
 {"node_id":"SR-AC-KH01-08","type":"SR-AC","name":"Kohli Block","visibility":true,"location":"0101000020E61000009886E12362965340601F9DBAF2713140","xcor":490,"ycor":600}, 
 {"node_id":"SR-AC-KH01-09","type":"SR-AC","name":"Kohli Block","visibility":true,"location":"0101000020E61000009886E12362965340601F9DBAF2713140","xcor":490,"ycor":600}, 
 {"node_id":"SR-AC-KH01-11","type":"SR-AC","name":"Kohli Block","visibility":true,"location":"0101000020E61000009886E12362965340601F9DBAF2713140","xcor":490,"ycor":600}, 
 {"node_id":"SR-AC-KH01-12","type":"SR-AC","name":"Kohli Block","visibility":true,"location":"0101000020E61000009886E12362965340601F9DBAF2713140","xcor":490,"ycor":600}, 
 {"node_id":"SR-AC-KH01-13","type":"SR-AC","name":"Kohli Block","visibility":true,"location":"0101000020E61000009886E12362965340601F9DBAF2713140","xcor":490,"ycor":600}, 
 {"node_id":"SR-AC-KH01-14","type":"SR-AC","name":"Kohli Block","visibility":true,"location":"0101000020E61000009886E12362965340601F9DBAF2713140","xcor":490,"ycor":600}, 
 {"node_id":"SR-AC-KH01-15","type":"SR-AC","name":"Kohli Block","visibility":true,"location":"0101000020E61000009886E12362965340601F9DBAF2713140","xcor":490,"ycor":600}, 
 {"node_id":"SR-AC-KH01-16","type":"SR-AC","name":"Kohli Block","visibility":true,"location":"0101000020E61000009886E12362965340601F9DBAF2713140","xcor":490,"ycor":600}, 
 {"node_id":"SR-AC-KH01-17","type":"SR-AC","name":"Kohli Block","visibility":true,"location":"0101000020E61000009886E12362965340601F9DBAF2713140","xcor":490,"ycor":600}, 
 {"node_id":"SR-AC-KH01-18","type":"SR-AC","name":"Kohli Block","visibility":true,"location":"0101000020E61000009886E12362965340601F9DBAF2713140","xcor":490,"ycor":600}, 
 {"node_id":"SR-AC-KH01-19","type":"SR-AC","name":"Kohli Block","visibility":true,"location":"0101000020E61000009886E12362965340601F9DBAF2713140","xcor":490,"ycor":600}, 
 {"node_id":"SR-AC-KH02-00","type":"SR-AC","name":"Kohli Block","visibility":true,"location":"0101000020E61000009886E12362965340601F9DBAF2713140","xcor":490,"ycor":600}, 
 {"node_id":"SR-AC-KH02-01","type":"SR-AC","name":"Kohli Block","visibility":true,"location":"0101000020E61000009886E12362965340601F9DBAF2713140","xcor":490,"ycor":600}, 
 {"node_id":"SR-AC-KH02-02","type":"SR-AC","name":"Kohli Block","visibility":true,"location":"0101000020E61000009886E12362965340601F9DBAF2713140","xcor":490,"ycor":600}, 
 {"node_id":"SR-AC-KH02-03","type":"SR-AC","name":"Kohli Block","visibility":true,"location":"0101000020E61000009886E12362965340601F9DBAF2713140","xcor":490,"ycor":600}, 
 {"node_id":"SR-AC-KH02-05","type":"SR-AC","name":"Kohli Block","visibility":true,"location":"0101000020E61000009886E12362965340601F9DBAF2713140","xcor":490,"ycor":600}, 
 {"node_id":"SR-AC-KH02-06","type":"SR-AC","name":"Kohli Block","visibility":true,"location":"0101000020E61000009886E12362965340601F9DBAF2713140","xcor":490,"ycor":600}, 
 {"node_id":"SR-AC-KH02-07","type":"SR-AC","name":"Kohli Block","visibility":true,"location":"0101000020E61000009886E12362965340601F9DBAF2713140","xcor":490,"ycor":600}, 
 {"node_id":"SR-AC-KH02-08","type":"SR-AC","name":"Kohli Block","visibility":true,"location":"0101000020E61000009886E12362965340601F9DBAF2713140","xcor":490,"ycor":600}, 
 {"node_id":"SR-AC-KH02-09","type":"SR-AC","name":"Kohli Block","visibility":true,"location":"0101000020E61000009886E12362965340601F9DBAF2713140","xcor":490,"ycor":600}, 
 {"node_id":"SR-AC-KH02-10","type":"SR-AC","name":"Kohli Block","visibility":true,"location":"0101000020E61000009886E12362965340601F9DBAF2713140","xcor":490,"ycor":600}, 
 {"node_id":"SR-AC-KH02-11","type":"SR-AC","name":"Kohli Block","visibility":true,"location":"0101000020E61000009886E12362965340601F9DBAF2713140","xcor":490,"ycor":600}, 
 {"node_id":"SR-AC-KH02-12","type":"SR-AC","name":"Kohli Block","visibility":true,"location":"0101000020E61000009886E12362965340601F9DBAF2713140","xcor":490,"ycor":600}, 
 {"node_id":"SR-AC-KH02-13","type":"SR-AC","name":"Kohli Block","visibility":true,"location":"0101000020E61000009886E12362965340601F9DBAF2713140","xcor":490,"ycor":600}, 
 {"node_id":"SR-AC-KH02-15","type":"SR-AC","name":"Kohli Block","visibility":true,"location":"0101000020E61000009886E12362965340601F9DBAF2713140","xcor":490,"ycor":600}, 
 {"node_id":"SR-AC-KH02-16","type":"SR-AC","name":"Kohli Block","visibility":true,"location":"0101000020E61000009886E12362965340601F9DBAF2713140","xcor":490,"ycor":600}, 
 {"node_id":"SR-AC-KH02-17","type":"SR-AC","name":"Kohli Block","visibility":true,"location":"0101000020E61000009886E12362965340601F9DBAF2713140","xcor":490,"ycor":600}, 
 {"node_id":"SR-AC-KH02-18","type":"SR-AC","name":"Kohli Block","visibility":true,"location":"0101000020E61000009886E12362965340601F9DBAF2713140","xcor":490,"ycor":600}, 
 {"node_id":"SR-AC-KH02-19","type":"SR-AC","name":"Kohli Block","visibility":true,"location":"0101000020E61000009886E12362965340601F9DBAF2713140","xcor":490,"ycor":600}, 
 {"node_id":"SR-AC-KH02-20","type":"SR-AC","name":"Kohli Block","visibility":true,"location":"0101000020E61000009886E12362965340601F9DBAF2713140","xcor":490,"ycor":600}, 
 {"node_id":"SR-AC-KH02-21","type":"SR-AC","name":"Kohli Block","visibility":true,"location":"0101000020E61000009886E12362965340601F9DBAF2713140","xcor":490,"ycor":600}, 
 {"node_id":"SR-AC-KH02-22","type":"SR-AC","name":"Kohli Block","visibility":true,"location":"0101000020E61000009886E12362965340601F9DBAF2713140","xcor":490,"ycor":600}, 
 {"node_id":"SR-AC-KH02-23","type":"SR-AC","name":"Kohli Block","visibility":true,"location":"0101000020E61000009886E12362965340601F9DBAF2713140","xcor":490,"ycor":600}, 
 {"node_id":"SR-AC-KH02-24","type":"SR-AC","name":"Kohli Block","visibility":true,"location":"0101000020E61000009886E12362965340601F9DBAF2713140","xcor":490,"ycor":600}, 
 {"node_id":"SR-AC-KH03-01","type":"SR-AC","name":"Kohli Block","visibility":true,"location":"0101000020E61000009886E12362965340601F9DBAF2713140","xcor":490,"ycor":600}, 
 {"node_id":"SR-AC-KH03-02","type":"SR-AC","name":"Kohli Block","visibility":true,"location":"0101000020E61000009886E12362965340601F9DBAF2713140","xcor":490,"ycor":600}, 
 {"node_id":"SR-AC-KH03-03","type":"SR-AC","name":"Kohli Block","visibility":true,"location":"0101000020E61000009886E12362965340601F9DBAF2713140","xcor":490,"ycor":600}, 
 {"node_id":"SR-AC-KH03-04","type":"SR-AC","name":"Kohli Block","visibility":true,"location":"0101000020E61000009886E12362965340601F9DBAF2713140","xcor":490,"ycor":600}, 
 {"node_id":"SR-AC-KH03-05","type":"SR-AC","name":"Kohli Block","visibility":true,"location":"0101000020E61000009886E12362965340601F9DBAF2713140","xcor":490,"ycor":600}, 
 {"node_id":"SR-AC-KH03-06","type":"SR-AC","name":"Kohli Block","visibility":true,"location":"0101000020E61000009886E12362965340601F9DBAF2713140","xcor":490,"ycor":600}, 
 {"node_id":"SR-AC-KH03-07","type":"SR-AC","name":"Kohli Block","visibility":true,"location":"0101000020E61000009886E12362965340601F9DBAF2713140","xcor":490,"ycor":600}, 
 {"node_id":"SR-AC-KH03-08","type":"SR-AC","name":"Kohli Block","visibility":true,"location":"0101000020E61000009886E12362965340601F9DBAF2713140","xcor":490,"ycor":600}, 
 {"node_id":"SR-AC-KH03-09","type":"SR-AC","name":"Kohli Block","visibility":true,"location":"0101000020E61000009886E12362965340601F9DBAF2713140","xcor":490,"ycor":600}, 
 {"node_id":"SR-AC-KH03-10","type":"SR-AC","name":"Kohli Block","visibility":true,"location":"0101000020E61000009886E12362965340601F9DBAF2713140","xcor":490,"ycor":600}, 
 {"node_id":"SR-AC-KH03-11","type":"SR-AC","name":"Kohli Block","visibility":true,"location":"0101000020E61000009886E12362965340601F9DBAF2713140","xcor":490,"ycor":600}, 
 {"node_id":"SR-AC-KH03-12","type":"SR-AC","name":"Kohli Block","visibility":true,"location":"0101000020E61000009886E12362965340601F9DBAF2713140","xcor":490,"ycor":600}, 
 {"node_id":"AQ-PH00-00","type":"AQ","name":"Pump House 3","visibility":true,"location":"0101000020E61000008C84B69C4B9653407959130B7C713140","xcor":17.445604,"ycor":78.347483}, 
 {"node_id":"AQ-FG00-00","type":"AQ","name":"Football Ground","visibility":true,"location":"0101000020E61000004356B77A4E9653400A4B3CA06C723140","xcor":550,"ycor":1100}, 
 {"node_id":"AQ-VN90-00","type":"AQ","name":"Vindhya Library ","visibility":true,"location":"0101000020E61000007311DF89599653403CBD529621723140","xcor":470,"ycor":900}, 
 {"node_id":"AQ-AN00-00","type":"AQ","name":"Anand Nivas","visibility":true,"location":"0101000020E6100000F12F82C64C9653405E8429CAA5713140","xcor":550,"ycor":200}, 
 {"node_id":"SR-AC-KH02-04","type":"SR-AC","name":"Kohli Block","visibility":true,"location":"0101000020E61000009886E12362965340601F9DBAF2713140","xcor":490,"ycor":600}, 
 {"node_id":"SR-AC-KH02-14","type":"SR-AC","name":"Kohli Block","visibility":true,"location":"0101000020E61000009886E12362965340601F9DBAF2713140","xcor":490,"ycor":600}, 
 {"node_id":"SR-AC-KH03-00","type":"SR-AC","name":"Kohli Block","visibility":true,"location":"0101000020E61000009886E12362965340601F9DBAF2713140","xcor":490,"ycor":600}, 
 {"node_id":"SR-AC-KH03-13","type":"SR-AC","name":"Kohli Block","visibility":true,"location":"0101000020E61000009886E12362965340601F9DBAF2713140","xcor":490,"ycor":600}, 
 {"node_id":"SR-AC-KH01-03","type":"SR-AC","name":"Kohli Block","visibility":true,"location":"0101000020E61000009886E12362965340601F9DBAF2713140","xcor":490,"ycor":600}, 
 {"node_id":"SR-AC-KH00-00","type":"SR-AC","name":"Kohli Block","visibility":true,"location":"0101000020E61000009886E12362965340601F9DBAF2713140","xcor":490,"ycor":600}, 
 {"node_id":"SR-AC-KH03-15","type":"SR-AC","name":"Kohli Block","visibility":true,"location":"0101000020E61000009886E12362965340601F9DBAF2713140","xcor":490,"ycor":600}, 
 {"node_id":"SR-AC-KH03-17","type":"SR-AC","name":"Kohli Block","visibility":true,"location":"0101000020E61000009886E12362965340601F9DBAF2713140","xcor":490,"ycor":600}, 
 {"node_id":"SR-AC-KH03-19","type":"SR-AC","name":"Kohli Block","visibility":true,"location":"0101000020E61000009886E12362965340601F9DBAF2713140","xcor":490,"ycor":600}, 
 {"node_id":"SR-AC-KH03-20","type":"SR-AC","name":"Kohli Block","visibility":true,"location":"0101000020E61000009886E12362965340601F9DBAF2713140","xcor":490,"ycor":600}, 
 {"node_id":"SR-AC-KH03-21","type":"SR-AC","name":"Kohli Block","visibility":true,"location":"0101000020E61000009886E12362965340601F9DBAF2713140","xcor":490,"ycor":600}, 
 {"node_id":"SR-EM-KH04-00","type":"SR-EM","name":"Kohli Block","visibility":true,"location":"0101000020E61000009886E12362965340601F9DBAF2713140","xcor":490,"ycor":600}, 
 {"node_id":"SR-EM-KH04-01","type":"SR-EM","name":"Kohli Block","visibility":true,"location":"0101000020E61000009886E12362965340601F9DBAF2713140","xcor":490,"ycor":600}, 
 {"node_id":"SR-EM-KH04-02","type":"SR-EM","name":"Kohli Block","visibility":true,"location":"0101000020E61000009886E12362965340601F9DBAF2713140","xcor":490,"ycor":600}, 
 {"node_id":"SL-VN03-00","type":"SL","name":"Vindhya","visibility":true,"location":"0101000020E61000007311DF89599653403CBD529621723140","xcor":470,"ycor":900}, 
 {"node_id":"SL-VN02-01","type":"SL","name":"Vindhya","visibility":true,"location":"0101000020E61000008E716A0C5F965340ED77CD5081723140","xcor":470,"ycor":900}, 
 {"node_id":"SL-VN02-00","type":"SL","name":"Vindhya","visibility":true,"location":"0101000020E61000000A0044B0609653402AE44A3D0B723140","xcor":470,"ycor":900}, 
 {"node_id":"EM-NC-VN01-00","type":"EM","name":"Vindhya","visibility":true,"location":"0101000020E6100000B21F73AF5D9653405DBE9AA84A723140","xcor":470,"ycor":900}, 
 {"node_id":"EM-NC-VN01-01","type":"EM","name":"Vindhya","visibility":true,"location":"0101000020E6100000B21F73AF5D9653405DBE9AA84A723140","xcor":470,"ycor":900}, 
 {"node_id":"EM-NC-VN92-00","type":"EM","name":"Vindhya","visibility":true,"location":"0101000020E6100000488F3A9567965340D81D41E037723140","xcor":470,"ycor":900}, 
 {"node_id":"EM-NC-VN93-00","type":"EM","name":"Vindhya","visibility":true,"location":"0101000020E61000006635B80867965340E2A2A4D12E723140","xcor":470,"ycor":900}, 
 {"node_id":"EM-NC-VN95-00","type":"EM","name":"Vindhya","visibility":true,"location":"0101000020E61000006635B80867965340E2A2A4D12E723140","xcor":470,"ycor":900}, 
 {"node_id":"EM-NC-BN01-00","type":"EM","name":"Bakul Nivas","visibility":true,"location":"0101000020E6100000F0FED3684D9653408E3F51D9B0723140","xcor":600,"ycor":1600}, 
 {"node_id":"EM-NC-NI93-00","type":"EM","name":"Nilgiri","visibility":true,"location":"0101000020E610000093C3CCE3559653404176285481723140","xcor":610,"ycor":1410}, 
 {"node_id":"EM-NC-SM00-00","type":"EM","name":"South Mess","visibility":true,"location":"0101000020E610000019D3026A2096534072642F25DC713140","xcor":610,"ycor":800}, 
 {"node_id":"EM-NC-NM00-00","type":"EM","name":"North Mess","visibility":true,"location":"0101000020E610000019D3026A2096534072642F25DC713140","xcor":610,"ycor":800}, 
 {"node_id":"EM-NC-PL92-00","type":"EM","name":"Palash Nivas","visibility":true,"location":"0101000020E61000005A0D897B2C9653409BDE6A42FF713140","xcor":650,"ycor":490}, 
 {"node_id":"SR-OC-GW-KH00-00","type":"SR-OC","name":"Kohli Block","visibility":true,"location":"0101000020E61000009886E12362965340601F9DBAF2713140","xcor":490,"ycor":600}, 
 {"node_id":"WM-WD-VN01-00","type":"WD","name":"SPCRC","visibility":true,"location":"0101000020E6100000DA756F45629653404438C19206723140","xcor":370,"ycor":650}, 
 {"node_id":"SR-AQ-KH02-08","type":"SR-AQ","name":"Kohli Block","visibility":false,"location":"0101000020E61000009886E12362965340601F9DBAF2713140","xcor":490,"ycor":600}, 
 {"node_id":"WM-WD-VN90-00","type":"WD","name":"Library","visibility":true,"location":"0101000020E6100000A1478C9E5B9653401B272AC01C723140","xcor":470,"ycor":900}, 
 {"node_id":"SR-AQ-KH02-06","type":"SR-AQ","name":"Kohli Block","visibility":false,"location":"0101000020E61000009886E12362965340601F9DBAF2713140","xcor":490,"ycor":600}, 
 {"node_id":"SR-AQ-KH02-07","type":"SR-AQ","name":"Kohli Block","visibility":false,"location":"0101000020E61000009886E12362965340601F9DBAF2713140","xcor":490,"ycor":600}, 
 {"node_id":"SR-AQ-KH02-05","type":"SR-AQ","name":"Kohli Block","visibility":false,"location":"0101000020E61000009886E12362965340601F9DBAF2713140","xcor":490,"ycor":600}, 
 {"node_id":"SR-AQ-KH02-04","type":"SR-AQ","name":"Kohli Block","visibility":false,"location":"0101000020E61000009886E12362965340601F9DBAF2713140","xcor":490,"ycor":600}, 
 {"node_id":"SR-AQ-KH02-03","type":"SR-AQ","name":"Kohli Block","visibility":false,"location":"0101000020E61000009886E12362965340601F9DBAF2713140","xcor":490,"ycor":600}, 
 {"node_id":"SR-AQ-KH02-01","type":"SR-AQ","name":"Kohli Block","visibility":false,"location":"0101000020E61000009886E12362965340601F9DBAF2713140","xcor":490,"ycor":600}, 
 {"node_id":"SR-AQ-KH00-03","type":"SR-AQ","name":"Kohli Block","visibility":false,"location":"0101000020E61000009886E12362965340601F9DBAF2713140","xcor":490,"ycor":600}, 
 {"node_id":"SR-AQ-KH01-00","type":"SR-AQ","name":"Kohli Block","visibility":false,"location":"0101000020E61000009886E12362965340601F9DBAF2713140","xcor":490,"ycor":600}, 
 {"node_id":"SR-AQ-KH01-01","type":"SR-AQ","name":"Kohli Block","visibility":false,"location":"0101000020E61000009886E12362965340601F9DBAF2713140","xcor":490,"ycor":600}, 
 {"node_id":"SR-AQ-KH02-02","type":"SR-AQ","name":"Kohli Block","visibility":false,"location":"0101000020E61000009886E12362965340601F9DBAF2713140","xcor":490,"ycor":600}, 
 {"node_id":"SR-AQ-KH01-02","type":"SR-AQ","name":"Kohli Block","visibility":false,"location":"0101000020E61000009886E12362965340601F9DBAF2713140","xcor":490,"ycor":600}, 
 {"node_id":"SR-AQ-KH02-00","type":"SR-AQ","name":"Kohli Block","visibility":false,"location":"0101000020E61000009886E12362965340601F9DBAF2713140","xcor":490,"ycor":600}, 
 {"node_id":"SR-AQ-KH01-03","type":"SR-AQ","name":"Kohli Block","visibility":false,"location":"0101000020E61000009886E12362965340601F9DBAF2713140","xcor":490,"ycor":600}, 
 {"node_id":"SR-AQ-KH01-04","type":"SR-AQ","name":"Kohli Block","visibility":false,"location":"0101000020E61000009886E12362965340601F9DBAF2713140","xcor":490,"ycor":600}, 
 {"node_id":"SR-AQ-KH00-02","type":"SR-AQ","name":"Kohli Block","visibility":true,"location":"0101000020E61000009886E12362965340601F9DBAF2713140","xcor":328,"ycor":530}, 
 {"node_id":"SR-AQ-KH00-01","type":"SR-AQ","name":"Kohli Block","visibility":true,"location":"0101000020E61000009886E12362965340601F9DBAF2713140","xcor":328,"ycor":530}, 
 {"node_id":"SR-AQ-KH00-00","type":"SR-AQ","name":"Kohli Block","visibility":true,"location":"0101000020E61000009886E12362965340601F9DBAF2713140","xcor":328,"ycor":522}, 
 {"node_id":"EM-NC-PL92-01","type":"EM","name":"Palash Nivas","visibility":true,"location":"0101000020E61000007FCF59B01E96534075464A69EC713140","xcor":650,"ycor":490}, 
 {"node_id":"EM-NC-PL98-00","type":"EM","name":"Palash Nivas","visibility":true,"location":"0101000020E610000057EC2FBB279653400438BD8BF7713140","xcor":650,"ycor":490}, 
 {"node_id":"EM-NC-KN98-00","type":"EM","name":"Kohli Block","visibility":true,"location":"0101000020E6100000391E7DDD339653400EF38A4C65723140","xcor":490,"ycor":600}, 
 {"node_id":"EM-CR-KN95-00","type":"EM","name":"Kohli Block","visibility":true,"location":"0101000020E6100000CBCBAB8438965340800D881057723140","xcor":490,"ycor":600}, 
 {"node_id":"EM-CR-KN95-01","type":"EM","name":"Kohli Block","visibility":true,"location":"0101000020E6100000391E7DDD339653400EF38A4C65723140","xcor":490,"ycor":600}, 
 {"node_id":"EM-NC-SN00-00","type":"EM","name":"Sahana Athidi Nivas","visibility":true,"location":"0101000020E6100000F47233373A96534080EC9A351D723140","xcor":610,"ycor":800}, 
 {"node_id":"EM-CR-TG00-00","type":"EM","name":"Tarangini Electrical Room","visibility":true,"location":"0101000020E61000004186E9D646965340C054D8B1B6723140","xcor":40,"ycor":110}, 
 {"node_id":"EM-CR-TG00-01","type":"EM","name":"Tarangini Electrical Room","visibility":true,"location":"0101000020E61000004186E9D646965340C054D8B1B6723140","xcor":40,"ycor":110}, 
 {"node_id":"EM-NC-PH01-00","type":"EM","name":"Pump House","visibility":true,"location":"0101000020E6100000F0C000C287965340D05E7D3CF4713140","xcor":40,"ycor":1100}, 
 {"node_id":"EM-NC-PH04-00","type":"EM","name":"Pump House","visibility":true,"location":"0101000020E6100000D0DCF9345D9653403BFC3559A3723140","xcor":40,"ycor":1100}, 
 {"node_id":"EM-NC-AR00-00","type":"EM","name":"AR","visibility":true,"location":"0101000020E6100000391E7DDD339653400EF38A4C65723140","xcor":40,"ycor":1100}, 
 {"node_id":"EM-NC-SC00-00","type":"EM","name":"Srujana Cultural Center","visibility":true,"location":"0101000020E61000000EFB986A41965340DD3F16A243723140","xcor":580,"ycor":800}, 
 {"node_id":"SR-AC-KH03-14","type":"SR-AC","name":"Kohli Block","visibility":true,"location":"0101000020E61000009886E12362965340601F9DBAF2713140","xcor":490,"ycor":600}, 
 {"node_id":"SR-AC-KH03-16","type":"SR-AC","name":"Kohli Block","visibility":true,"location":"0101000020E61000009886E12362965340601F9DBAF2713140","xcor":490,"ycor":600}, 
 {"node_id":"SR-AC-KH03-18","type":"SR-AC","name":"Kohli Block","visibility":true,"location":"0101000020E61000009886E12362965340601F9DBAF2713140","xcor":490,"ycor":600}, 
 {"node_id":"EM-NC-SS00-00","type":"EM","name":"Sanskar School","visibility":true,"location":"0101000020E6100000D709794E44965340AC3C81B053723140","xcor":610,"ycor":950}, 
 {"node_id":"EM-NC-DH00-00","type":"EM","name":"Kadamb Mess","visibility":true,"location":"0101000020E61000001C2B8C883D96534036131D1373723140","xcor":700,"ycor":850}, 
 {"node_id":"EM-NC-YM00-00","type":"EM","name":"Yuktahar Mess","visibility":true,"location":"0101000020E61000001C2B8C883D96534036131D1373723140","xcor":40,"ycor":1100}, 
 {"node_id":"CM-VN90-00","type":"CM","name":"Vindhya","visibility":true,"location":"0101000020E6100000A3AF20CD58965340274EEE7728723140","xcor":470,"ycor":900}, 
 {"node_id":"CM-VN90-01","type":"CM","name":"Vindhya","visibility":true,"location":"0101000020E61000002E04392861965340D21DC4CE14723140","xcor":470,"ycor":900}, 
 {"node_id":"CM-MG00-00","type":"CM","name":"Main Gate","visibility":true,"location":"0101000020E61000009CC420B072965340EEEBC03923723140","xcor":30,"ycor":1100}, 
 {"node_id":"CM-VN91-00","type":"CM","name":"Vindhya Nivas","visibility":true,"location":"0101000020E6100000EE7C3F355E9653406EDDCD531D723140","xcor":470,"ycor":900}, 
 {"node_id":"CM-MG99-00","type":"CM","name":"Main Gate","visibility":true,"location":"0101000020E6100000EAB298D87C965340605969520A723140","xcor":30,"ycor":1100}, 
 {"node_id":"AQ-SN00-00","type":"AQ","name":"Sahana Atidhi Nivas","visibility":true,"location":"0101000020E61000009F3A56293D9653407FF78E1A13723140","xcor":610,"ycor":800}, 
 {"node_id":"AQ-PL00-00","type":"AQ","name":"Palash Nivas","visibility":true,"location":"0101000020E6100000F931E6AE25965340D2C6116BF1713140","xcor":650,"ycor":490}, 
 {"node_id":"AQ-BN00-00","type":"AQ","name":"Bakul Nivas","visibility":true,"location":"0101000020E6100000321F10E84C965340CEC64ACCB3723140","xcor":600,"ycor":1600}, 
 {"node_id":"AQ-KN00-00","type":"AQ","name":"Kadamba Nivas","visibility":true,"location":"0101000020E6100000D1747632389653400A11700855723140","xcor":670,"ycor":1100}, 
 {"node_id":"AQ-MG00-00","type":"AQ","name":"Main Gate","visibility":true,"location":"0101000020E610000043CA4FAA7D965340D15790662C723140","xcor":30,"ycor":1100}, 
 {"node_id":"AQ-KH00-00","type":"AQ","name":"Kohli Research Block","visibility":true,"location":"0101000020E6100000115322895E965340B6F81400E3713140","xcor":490,"ycor":600}, 
 {"node_id":"WM-WD-BN04-00","type":"WD","name":"Bakul Nivas","visibility":false,"location":"0101000020E6100000C20D428A4B965340E415889E94713140","xcor":600,"ycor":1600}, 
 {"node_id":"SR-AQ-KH95-00","type":"SR-AQ","name":"Admin Block","visibility":true,"location":"0101000020E61000009886E12362965340601F9DBAF2713140","xcor":348,"ycor":522}, 
 {"node_id":"SR-AQ-KH03-01","type":"SR-AQ","name":"Admin Block","visibility":true,"location":"0101000020E61000009886E12362965340601F9DBAF2713140","xcor":407,"ycor":507}, 
 {"node_id":"SR-OC-GW-KH03-01","type":"SR-OC","name":"Admin Block","visibility":false,"location":"0101000020E61000009886E12362965340601F9DBAF2713140","xcor":387,"ycor":547}, 
 {"node_id":"SR-OC-GW-KH03-03","type":"SR-OC","name":"Admin Block","visibility":false,"location":"0101000020E61000009886E12362965340601F9DBAF2713140","xcor":402,"ycor":568}, 
 {"node_id":"SL-NI03-01","type":"SL","name":"-","visibility":true,"location":"0101000020E61000003646A11B5096534004C8D0B183723140","xcor":549,"ycor":1355}]
